<?xml version="1.0" encoding="utf-8"?>
<!-- Generator: Adobe Illustrator 19.0.0, SVG Export Plug-In . SVG Version: 6.00 Build 0)  -->
<svg version="1.1" id="Calque_1" xmlns="http://www.w3.org/2000/svg" xmlns:xlink="http://www.w3.org/1999/xlink" x="0px" y="0px"
	 width="34.5px" height="25.9px" viewBox="0 0 34.5 25.9" style="enable-background:new 0 0 34.5 25.9;" xml:space="preserve">
<path id="XMLID_246_" style="fill:#E06359;" d="M15.7,2.7c0,0.4-0.1,0.9-0.4,1.2l-6.6,6.6h24c1.1,0,1.9,1.1,1.9,2.5
	c0,1.4-0.8,2.4-1.9,2.4h-24l6.6,6.6c0.3,0.3,0.4,0.8,0.4,1.2c0,1.4-1.3,2.7-2.7,2.7c-0.4,0-0.9-0.2-1.2-0.5l-11-11
	C0.3,13.9,0,13.4,0,13c0-0.4,0.3-0.9,0.8-1.5l11-11C12.1,0.2,12.6,0,13,0C14.3,0,15.7,1.4,15.7,2.7z"/>
</svg>
